http://api.met.no/weatherapi/locationforecast/1.9/?lat=49.9935;lon=36.2304   Flau vind
http://api.met.no/weatherapi/locationforecast/1.9/?lat=49.9935;lon=36.2304   Svak vind
http://api.met.no/weatherapi/locationforecast/1.9/?lat=49.9935;lon=36.2304   Lett bris
http://api.met.no/weatherapi/locationforecast/1.9/?lat=49.9935;lon=36.2304   Flau vind